hw4
…
Question 2

The following block only adds a column that displays the total number of feedings per chick. If the number is not equal to 12, then those rows are dropped. There are 45 chicks with 12 recordings.

complete <- ChickWeight %>% group_by(Chick) %>% mutate(Num_Feed=n()) %>% filter(Num_Feed==12) %>% select(-Num_Feed)

print(tbl_df(complete), n=3)

## # A tibble: 540 x 4
##   weight  Time Chick Diet 
##    <dbl> <dbl> <ord> <fct>
## 1     42     0 1     1    
## 2     51     2 1     1    
## 3     59     4 1     1    
## # ... with 537 more rows

Question 3

The weight gain column is added by adding a column that records the difference between current weight and previous weight. Now the weight gain column can be created by making a running total of weight gain.

complete <- complete %>% group_by(Chick) %>%  mutate(differ=(weight - lag(weight, default=weight[1])), weightgain=cumsum(differ)) %>% select(-differ)

print(tbl_df(complete), n=3)

## # A tibble: 540 x 5
##   weight  Time Chick Diet  weightgain
##    <dbl> <dbl> <ord> <fct>      <dbl>
## 1     42     0 1     1              0
## 2     51     2 1     1              9
## 3     59     4 1     1             17
## # ... with 537 more rows
…
